{
    "formatVersion": "1.0",
    "meta": {
        "name": "Cross-Site Scripting",
        "description": "",
        "isPublic": true,
        "securityGroupRules": []
    },
    "topo": {
        "networks": [
            {
                "cidr": "10.0.0.0/24",
                "gid": "36a0ced0-cbce-11e8-826c-6982d2552897",
                "name": "Network",
                "type": "NetworkNode",
                "x": 418.3999938964844,
                "y": 174.39999389648438
            }
        ],
        "instances": [
            {
                "configurations": [
                    "Enable password authentication",
                    "noVNC"
                ],
                "flavor": {
                    "name": "Medium",
                    "ram": 2048
                },
                "gid": "3843a960-cbce-11e8-826c-6982d2552897",
                "image": "xss-web-server",
                "name": "web-server",
                "status": null,
                "type": "Instance",
                "x": 196.39999389648438,
                "y": 319.6000061035156
            },
            {
                "configurations": [
                    "Enable password authentication",
                    "noVNC"
                ],
                "flavor": {
                    "name": "Medium",
                    "ram": 2048
                },
                "gid": "38e47d40-cbce-11e8-826c-6982d2552897",
                "image": "xss-normal",
                "name": "hacker",
                "status": null,
                "type": "Instance",
                "x": 392.3999938964844,
                "y": 323.6000061035156
            },
            {
                "configurations": [
                    "Enable password authentication",
                    "noVNC"
                ],
                "flavor": {
                    "name": "Medium",
                    "ram": 2048
                },
                "gid": "396768e0-cbce-11e8-826c-6982d2552897",
                "image": "xss-normal",
                "name": "victim",
                "status": null,
                "type": "Instance",
                "x": 598.4000244140625,
                "y": 333.6000061035156
            }
        ],
        "routers": [],
        "links": [
            {
                "allowedAddressPairs": [],
                "gid": "3b4354d0-cbce-11e8-826c-6982d2552897",
                "ip": "10.0.0.10",
                "name": "Network0_undefined",
                "network": {
                    "gid": "36a0ced0-cbce-11e8-826c-6982d2552897",
                    "type": "NetworkNode",
                    "x": 418.3999938964844,
                    "y": 174.39999389648438
                },
                "target": {
                    "gid": "3843a960-cbce-11e8-826c-6982d2552897",
                    "type": "Instance",
                    "x": 196.39999389648438,
                    "y": 319.6000061035156
                },
                "type": "NetworkLink"
            },
            {
                "allowedAddressPairs": [],
                "gid": "3bef7350-cbce-11e8-826c-6982d2552897",
                "ip": "10.0.0.11",
                "name": "Network0_Instance1",
                "network": {
                    "gid": "36a0ced0-cbce-11e8-826c-6982d2552897",
                    "type": "NetworkNode",
                    "x": 418.3999938964844,
                    "y": 174.39999389648438
                },
                "target": {
                    "gid": "38e47d40-cbce-11e8-826c-6982d2552897",
                    "type": "Instance",
                    "x": 392.3999938964844,
                    "y": 323.6000061035156
                },
                "type": "NetworkLink"
            },
            {
                "allowedAddressPairs": [],
                "gid": "3d172a70-cbce-11e8-826c-6982d2552897",
                "ip": "10.0.0.12",
                "name": "Network0_undefined",
                "network": {
                    "gid": "36a0ced0-cbce-11e8-826c-6982d2552897",
                    "type": "NetworkNode",
                    "x": 418.3999938964844,
                    "y": 174.39999389648438
                },
                "target": {
                    "gid": "396768e0-cbce-11e8-826c-6982d2552897",
                    "type": "Instance",
                    "x": 598.4000244140625,
                    "y": 333.6000061035156
                },
                "type": "NetworkLink"
            }
        ]
    }
}